<svg width="120" height="189" viewBox="0 0 120 189" fill="none" xmlns="http://www.w3.org/2000/svg">
<g clip-path="url(#clip0)">
<path d="M107.487 7.00008H10.5128C7.19557 7.00436 4.01545 8.28406 1.6698 10.5586C-0.675858 12.8331 -1.99559 15.9168 -2 19.1334V176.867C-1.99559 180.083 -0.675858 183.167 1.6698 185.442C4.01545 187.716 7.19557 188.996 10.5128 189H107.487C110.804 188.996 113.985 187.716 116.33 185.442C118.676 183.167 119.996 180.083 120 176.867V19.1334C119.996 15.9168 118.676 12.8331 116.33 10.5586C113.985 8.28406 110.804 7.00436 107.487 7.00008ZM110.724 180.718H7.1356V14.8604H110.724V180.718Z" fill="#333333" fill-opacity="0.3"/>
<path d="M52.2511 120.459L73.7742 130.471C74.6484 130.877 75.7048 131.022 76.7226 130.875C77.7404 130.728 78.6407 130.301 79.2353 129.684L101.375 106.511C101.675 106.198 101.886 105.846 101.997 105.473C102.088 104.648 99.8101 103.856 99.3772 103.641C98.5038 103.203 98.407 101.872 97.3625 102.01C96.318 102.148 95.3915 102.581 94.7864 103.215L74.8444 124.081L53.1936 114.011C52.295 113.594 51.2054 113.452 50.1635 113.618C49.1254 113.786 48.2213 114.246 47.6487 114.898L14.6308 152.549C14.2436 152.987 14.0265 153.493 14.0023 154.013C13.9781 154.533 14.1477 155.049 14.4933 155.504C14.8389 155.96 15.3475 156.34 15.9656 156.603C16.5836 156.867 17.288 157.004 18.0044 157C18.6784 157.001 19.3419 156.879 19.9332 156.644C20.5246 156.409 21.0246 156.069 21.3868 155.656L52.2511 120.459Z" fill="#333333" fill-opacity="0.5"/>
<path fill-rule="evenodd" clip-rule="evenodd" d="M75.475 50.0546C74.6231 49.0806 74.0465 47.8869 74.1429 46.5493C74.4205 42.6953 79.9278 43.5432 80.9991 45.4883C82.0704 47.4334 81.9431 52.3675 80.5586 52.7151C80.0064 52.8538 78.8302 52.5141 77.633 51.8112L78.3844 56.9898H73.9475L75.475 50.0546Z" fill="#B28B67"/>
<path fill-rule="evenodd" clip-rule="evenodd" d="M78.4704 43.2464C77.8856 43.153 76.3111 43.0888 76.0207 43.0889C75.8352 43.0889 75.6341 43.1301 75.5242 42.9642C75.4342 42.8283 75.4672 42.5984 75.4403 42.4407C75.4091 42.2574 75.3648 42.0766 75.32 41.8962C75.1925 41.3828 74.9997 40.8945 74.7299 40.4359C74.2237 39.5757 73.482 38.9018 72.5458 38.5097C71.5119 38.0768 70.342 37.9776 69.2299 38.0654C68.0398 38.1594 66.9625 38.5421 65.8389 38.9022C64.7681 39.2454 63.6466 39.3805 62.5267 39.2129C61.3984 39.0441 60.5458 38.4483 59.594 37.8829C58.6197 37.3041 57.5063 36.9255 56.3545 37.0125C55.2793 37.0938 54.2884 37.5262 53.3993 38.1039C52.5675 38.6444 51.8811 39.2947 51.4936 40.21C51.0767 41.1945 51.0771 42.2752 51.7626 43.1452C52.7563 44.4064 54.6009 44.7326 56.1355 44.7002C57.0232 44.6815 57.895 44.5236 58.733 44.2365C59.8507 43.8535 60.8165 43.2045 61.8621 42.6779C62.3528 42.4308 62.86 42.2278 63.3917 42.0816C63.9076 41.9397 64.4157 41.8746 64.8828 42.1782C65.3769 42.4993 65.8197 42.8148 66.385 43.0159C66.9273 43.2088 67.5017 43.3166 68.0795 43.3123C69.2037 43.3038 70.3118 42.9626 71.4036 42.7341C72.294 42.5478 73.2466 42.3621 74.1543 42.5412C74.533 42.6159 75.0863 42.7703 75.2231 43.1537C72.9206 43.5602 72.0163 46.334 72.6654 48.3703C73.0157 49.4693 75.1216 50.7541 75.9404 50.1763C76.4592 49.8103 76.1442 49.3297 75.9404 49.0125C75.5501 48.405 75.4166 47.6246 76.1388 47.2017C76.7618 46.8369 77.4168 47.7032 77.4292 47.7022C77.6004 47.6891 79.0798 46.874 80.0992 45.6846C81.1048 45.7427 81.2573 45.0968 81.0172 44.5686C80.7771 44.0404 79.2784 43.3756 78.4704 43.2464Z" fill="#191847"/>
<path fill-rule="evenodd" clip-rule="evenodd" d="M69.0868 77.2948C71.0569 81.2218 94.2918 84.7063 94.5377 84.9922C94.647 85.1192 94.7088 90.7073 94.7229 101.757L96.5904 101.667C98.3977 89.1212 98.9328 82.3951 98.1956 81.489C97.1402 80.1917 90.3675 77.4533 77.8775 73.2737L69.0868 77.2948Z" fill="#B28B67"/>
<path fill-rule="evenodd" clip-rule="evenodd" d="M94.2731 99.4681L97.2941 99.2553C100.089 90.2037 100.014 83.8385 98.4847 81.286C97.4652 79.5844 90.7122 76.8467 78.2257 73.0727L68.9039 77.3913C73.1277 86.6426 92.9575 85.7669 93.3504 86.0625C93.7433 86.3581 93.1445 91.3133 94.2731 99.4681Z" fill="#FFA55C"/>
<path fill-rule="evenodd" clip-rule="evenodd" d="M72.8385 71.937L63.2721 94.3087L53.8699 113.222H56.0882L80.3579 71.937H72.8385Z" fill="#997659"/>
<path fill-rule="evenodd" clip-rule="evenodd" d="M54.7189 109.293L59.648 110.193C63.4591 104.735 79.4089 82.3554 81.1577 71.937H70.1844C64.3445 79.4685 58.3517 103.745 54.7189 109.293Z" fill="#FFB478"/>
<path d="M54.2609 111.845L54.2618 111.846C54.624 112.233 54.9368 112.485 55.1998 112.595C55.521 112.73 55.9822 112.786 56.5788 112.768L56.5984 112.768L56.6124 112.754L57.1877 112.196L57.1528 112.161L57.1877 112.196L57.1904 112.194L57.1566 112.157L57.1904 112.194C57.2436 112.145 57.3291 112.148 57.3809 112.202L61.0215 116.012L61.0202 116.013L61.0318 116.02C61.3661 116.221 61.7887 116.467 62.2995 116.756C62.4217 116.825 62.5077 116.905 62.561 116.994C62.614 117.082 62.6364 117.183 62.6271 117.297C62.6087 117.522 62.4668 117.801 62.1886 118.136L62.1873 118.135L62.152 118.12L62.1167 118.106L62.0815 118.091L62.0463 118.076L62.0113 118.061L61.9762 118.047L61.9413 118.032L61.9064 118.017L61.8716 118.003L61.8368 117.988L61.8021 117.974L61.7675 117.959L61.733 117.945L61.6985 117.93L61.664 117.916L61.6297 117.901L61.5954 117.887L61.5612 117.873L61.527 117.858L61.4929 117.844L61.4589 117.83L61.4249 117.816L61.391 117.801L61.3571 117.787L61.3234 117.773L61.2896 117.759L61.256 117.745L61.2224 117.731L61.1889 117.717L61.1554 117.703L61.1221 117.689L61.0887 117.675L61.0555 117.661L61.0223 117.647L60.9892 117.633L60.9561 117.619L60.9231 117.605L60.8902 117.592L60.8573 117.578L60.8245 117.564L60.7918 117.55L60.7591 117.537L60.7265 117.523L60.694 117.509L60.6615 117.496L60.6291 117.482L60.5968 117.469L60.5645 117.455L60.5323 117.442L60.5001 117.428L60.468 117.415L60.436 117.401L60.4041 117.388L60.3722 117.374L60.3404 117.361L60.3086 117.348L60.2769 117.335L60.2453 117.321L60.2137 117.308L60.1822 117.295L60.1508 117.282L60.1194 117.269L60.0881 117.255L60.0569 117.242L60.0257 117.229L59.9946 117.216L59.9636 117.203L59.9326 117.19L59.9017 117.177L59.8708 117.164L59.8401 117.151L59.8093 117.139L59.7787 117.126L59.7481 117.113L59.7176 117.1L59.6871 117.087L59.6567 117.075L59.6264 117.062L59.5962 117.049L59.566 117.037L59.5358 117.024L59.5058 117.011L59.4758 116.999L59.4458 116.986L59.416 116.974L59.3862 116.961L59.3564 116.949L59.3268 116.936L59.2971 116.924L59.2676 116.912L59.2381 116.899L59.2087 116.887L59.1794 116.875L59.1501 116.862L59.1209 116.85L59.0917 116.838L59.0626 116.826L59.0336 116.814L59.0047 116.801L58.9758 116.789L58.9469 116.777L58.9182 116.765L58.8895 116.753L58.8608 116.741L58.8323 116.729L58.8038 116.717L58.7753 116.705L58.747 116.693L58.7187 116.682L58.6904 116.67L58.6623 116.658L58.6341 116.646L58.6061 116.634L58.5781 116.623L58.5502 116.611L58.5224 116.599L58.4946 116.588L58.4669 116.576L58.4392 116.564L58.4116 116.553L58.3841 116.541L58.3566 116.53L58.3292 116.518L58.3019 116.507L58.2747 116.495L58.2475 116.484L58.2203 116.473L58.1933 116.461L58.1663 116.45L58.1393 116.439L58.1124 116.427L58.0856 116.416L58.0589 116.405L58.0322 116.394L58.0056 116.383L57.9791 116.372L57.9526 116.36L57.9262 116.349L57.8998 116.338L57.8735 116.327L57.8473 116.316L57.8212 116.305L57.7951 116.294L57.769 116.284L57.7431 116.273L57.7172 116.262L57.6914 116.251L57.6656 116.24L57.6399 116.229L57.6143 116.219L57.5887 116.208L57.5632 116.197L57.5377 116.187L57.5124 116.176L57.4871 116.165L57.4618 116.155L57.4366 116.144L57.4115 116.134L57.3865 116.123L57.3615 116.113L57.3366 116.102L57.3117 116.092L57.2869 116.082L57.2622 116.071L57.2376 116.061L57.213 116.051L57.1884 116.04L57.164 116.03L57.1396 116.02L57.1152 116.01L57.091 115.999L57.0668 115.989L57.0426 115.979L57.0186 115.969L56.9946 115.959L56.9706 115.949L56.9467 115.939L56.9229 115.929L56.8992 115.919L56.8755 115.909L56.8519 115.899L56.8283 115.889L56.8049 115.88L56.7814 115.87L56.7581 115.86L56.7348 115.85L56.7116 115.84L56.6884 115.831L56.6653 115.821L56.6423 115.811L56.6193 115.802L56.5964 115.792L56.5736 115.783L56.5508 115.773L56.5281 115.764L56.5055 115.754L56.4829 115.745L56.4604 115.735L56.438 115.726L56.4156 115.716L56.3933 115.707L56.371 115.698L56.3488 115.688L56.3267 115.679L56.3047 115.67L56.2827 115.661L56.2608 115.652L56.2389 115.642L56.2171 115.633L56.1954 115.624L56.1737 115.615L56.1521 115.606L56.1306 115.597L56.1091 115.588L56.0877 115.579L56.0664 115.57L56.0451 115.561L56.0239 115.552L56.0028 115.543L55.9817 115.535L55.9607 115.526L55.9398 115.517L55.9189 115.508L55.8981 115.5L55.8773 115.491L55.8566 115.482L55.836 115.474L55.8155 115.465L55.795 115.456L55.7745 115.448L55.7542 115.439L55.7339 115.431L55.7137 115.422L55.6935 115.414L55.6734 115.405L55.6534 115.397L55.6334 115.389L55.6135 115.38L55.5937 115.372L55.5739 115.364L55.5542 115.355L55.5345 115.347L55.515 115.339L55.4955 115.331L55.476 115.323L55.4566 115.315L55.4373 115.306L55.4181 115.298L55.3989 115.29L55.3798 115.282L55.3607 115.274L55.3417 115.266L55.3228 115.258L55.3039 115.251L55.2851 115.243L55.2664 115.235L55.2477 115.227L55.2291 115.219L55.2106 115.211L55.1921 115.204L55.1737 115.196L55.1554 115.188L55.1371 115.181L55.1189 115.173L55.1008 115.165L55.0827 115.158L55.0647 115.15L55.0467 115.143L55.0288 115.135L55.011 115.128L54.9933 115.12L54.9756 115.113L54.958 115.106L54.9404 115.098L54.9229 115.091L54.9055 115.084L54.8881 115.076L54.8708 115.069L54.8536 115.062L54.8364 115.055L54.8193 115.047L54.8023 115.04L54.7853 115.033L54.7684 115.026L54.7516 115.019L54.7348 115.012L54.7181 115.005L54.7014 114.998L54.6848 114.991L54.6683 114.984L54.6519 114.977L54.6355 114.97L54.6192 114.964L54.6029 114.957L54.5867 114.95L54.5706 114.943L54.5545 114.937L54.5386 114.93L54.5226 114.923L54.5068 114.916L54.491 114.91L54.4752 114.903L54.4596 114.897L54.444 114.89L54.4284 114.884L54.4129 114.877L54.3975 114.871L54.3822 114.864L54.3669 114.858L54.3517 114.852L54.3366 114.845L54.3215 114.839L54.3065 114.833L54.2915 114.826L54.2766 114.82L54.2618 114.814L54.247 114.808L54.2323 114.801L54.2177 114.795L54.2032 114.789L54.1887 114.783L54.1742 114.777L54.1599 114.771L54.1456 114.765L54.1313 114.759L54.1172 114.753L54.1031 114.747L54.089 114.741L54.075 114.736L54.0611 114.73L54.0473 114.724L54.0335 114.718L54.0198 114.712L54.0061 114.707L53.9926 114.701L53.979 114.695L53.9656 114.69L53.9522 114.684L53.9389 114.679L53.9256 114.673L53.9124 114.667L53.8993 114.662L53.8862 114.656L53.8732 114.651L53.8603 114.646L53.8474 114.64L53.8346 114.635L53.8219 114.629L53.8092 114.624L53.7966 114.619L53.7841 114.614L53.7716 114.608L53.7592 114.603L53.7468 114.598L53.7346 114.593L53.7223 114.588L53.7102 114.583L53.6981 114.578L53.6861 114.573L53.6741 114.568L53.6622 114.563L53.6504 114.558L53.6386 114.553L53.6269 114.548L53.6153 114.543L53.6038 114.538L53.5923 114.533L53.5808 114.528L53.5695 114.524L53.5581 114.519L53.5469 114.514L53.5357 114.51L53.5246 114.505L53.5136 114.5L53.5026 114.496L53.4917 114.491L53.4808 114.487L53.4701 114.482L53.4593 114.478L53.4487 114.473L53.4381 114.469L53.4276 114.464L53.4171 114.46L53.4067 114.456L53.3964 114.451L53.3861 114.447L53.3759 114.443L53.3658 114.438L53.3557 114.434L53.3457 114.43L53.3358 114.426L53.3259 114.422L53.3161 114.418L53.3064 114.413L53.2967 114.409L53.2871 114.405L53.2775 114.401L53.2681 114.397L53.2587 114.393L53.2493 114.39L53.24 114.386L53.2308 114.382L53.2216 114.378L53.2126 114.374L53.2035 114.37L53.1946 114.367L53.1857 114.363L53.1768 114.359L53.1681 114.355L53.1594 114.352L53.1507 114.348L53.1422 114.345L53.1337 114.341L53.1252 114.338L53.1169 114.334L53.1086 114.331L53.1003 114.327L53.0921 114.324L53.084 114.32L53.076 114.317L53.068 114.314L53.0601 114.31L53.0522 114.307L53.0444 114.304L53.0367 114.3L53.0291 114.297L53.0215 114.294L53.0139 114.291L53.0065 114.288L52.9991 114.285L52.9917 114.282L52.9845 114.279L52.9773 114.276L52.9701 114.273L52.9631 114.27L52.9561 114.267L52.9491 114.264L52.9423 114.261L52.9354 114.258L52.9287 114.255L52.922 114.252L52.9154 114.25L52.9089 114.247L52.9024 114.244L52.8959 114.241L52.8896 114.239L52.8833 114.236L52.8771 114.234L52.8709 114.231L52.8648 114.228L52.8588 114.226L52.8528 114.223L52.8469 114.221L52.8411 114.218L52.8353 114.216L52.8296 114.214L52.824 114.211L52.8184 114.209L52.8129 114.207L52.8075 114.204L52.8021 114.202L52.7968 114.2L52.7915 114.198L52.7864 114.196L52.7812 114.193L52.7762 114.191L52.7712 114.189L52.7663 114.187L52.7614 114.185L52.7566 114.183L52.7519 114.181L52.7473 114.179L52.7427 114.177L52.7381 114.175L52.7337 114.173L52.7293 114.172L52.7249 114.17L52.7207 114.168L52.7165 114.166L52.7123 114.164L52.7082 114.163L52.7042 114.161L52.7003 114.159L52.6964 114.158L52.6926 114.156L52.6888 114.155L52.6852 114.153L52.6815 114.152L52.678 114.15L52.6745 114.149L52.6711 114.147L52.6677 114.146L52.6644 114.144L52.6612 114.143L52.658 114.142L52.655 114.14C52.793 113.545 52.9235 113.104 53.0462 112.816C53.1469 112.579 53.3941 112.253 53.7948 111.838C53.7999 111.833 53.8053 111.828 53.8108 111.823C53.9389 111.708 54.1403 111.717 54.2609 111.845Z" fill="#F2F2F2" stroke="black" stroke-width="0.1"/>
<path d="M94.1614 100.858L94.1624 100.859C94.5911 101.171 94.9459 101.36 95.2248 101.419C95.5654 101.491 96.0287 101.459 96.6108 101.329L96.6299 101.325L96.641 101.309L97.0999 100.652L97.0589 100.624L97.0999 100.652L97.1021 100.649C97.1451 100.591 97.2295 100.578 97.2905 100.621L101.584 103.679L101.583 103.681L101.596 103.686C101.962 103.82 102.423 103.982 102.979 104.17C103.112 104.215 103.212 104.277 103.281 104.354C103.35 104.431 103.391 104.525 103.403 104.639C103.428 104.864 103.341 105.165 103.132 105.546L103.13 105.546L103.093 105.538L103.055 105.53L103.018 105.523L102.981 105.515L102.944 105.507L102.907 105.499L102.869 105.491L102.832 105.483L102.796 105.476L102.759 105.468L102.722 105.46L102.685 105.452L102.648 105.445L102.612 105.437L102.575 105.429L102.539 105.422L102.503 105.414L102.466 105.406L102.43 105.399L102.394 105.391L102.358 105.384L102.322 105.376L102.286 105.368L102.25 105.361L102.214 105.353L102.178 105.346L102.143 105.338L102.107 105.331L102.071 105.323L102.036 105.316L102.001 105.308L101.965 105.301L101.93 105.293L101.895 105.286L101.86 105.279L101.825 105.271L101.79 105.264L101.755 105.257L101.72 105.249L101.685 105.242L101.65 105.235L101.616 105.227L101.581 105.22L101.547 105.213L101.512 105.205L101.478 105.198L101.443 105.191L101.409 105.184L101.375 105.177L101.341 105.169L101.307 105.162L101.273 105.155L101.239 105.148L101.205 105.141L101.171 105.134L101.138 105.127L101.104 105.12L101.071 105.112L101.037 105.105L101.004 105.098L100.97 105.091L100.937 105.084L100.904 105.077L100.871 105.07L100.838 105.063L100.805 105.056L100.772 105.05L100.739 105.043L100.706 105.036L100.673 105.029L100.641 105.022L100.608 105.015L100.576 105.008L100.543 105.001L100.511 104.995L100.479 104.988L100.446 104.981L100.414 104.974L100.382 104.967L100.35 104.961L100.318 104.954L100.286 104.947L100.254 104.941L100.223 104.934L100.191 104.927L100.159 104.921L100.128 104.914L100.096 104.907L100.065 104.901L100.034 104.894L100.002 104.888L99.9712 104.881L99.9401 104.874L99.9091 104.868L99.8781 104.861L99.8471 104.855L99.8163 104.848L99.7855 104.842L99.7548 104.835L99.7242 104.829L99.6936 104.822L99.6631 104.816L99.6327 104.81L99.6023 104.803L99.572 104.797L99.5418 104.79L99.5116 104.784L99.4815 104.778L99.4515 104.771L99.4215 104.765L99.3917 104.759L99.3618 104.753L99.3321 104.746L99.3024 104.74L99.2728 104.734L99.2433 104.728L99.2138 104.721L99.1844 104.715L99.1551 104.709L99.1258 104.703L99.0966 104.697L99.0675 104.691L99.0385 104.684L99.0095 104.678L98.9806 104.672L98.9517 104.666L98.9229 104.66L98.8942 104.654L98.8656 104.648L98.837 104.642L98.8085 104.636L98.7801 104.63L98.7517 104.624L98.7234 104.618L98.6952 104.612L98.667 104.606L98.639 104.6L98.6109 104.594L98.583 104.589L98.5551 104.583L98.5273 104.577L98.4996 104.571L98.4719 104.565L98.4443 104.559L98.4168 104.554L98.3893 104.548L98.3619 104.542L98.3346 104.536L98.3073 104.531L98.2801 104.525L98.253 104.519L98.226 104.513L98.199 104.508L98.1721 104.502L98.1452 104.496L98.1185 104.491L98.0917 104.485L98.0651 104.48L98.0385 104.474L98.012 104.468L97.9856 104.463L97.9593 104.457L97.933 104.452L97.9067 104.446L97.8806 104.441L97.8545 104.435L97.8285 104.43L97.8026 104.424L97.7767 104.419L97.7509 104.413L97.7251 104.408L97.6995 104.403L97.6739 104.397L97.6483 104.392L97.6229 104.386L97.5975 104.381L97.5722 104.376L97.5469 104.37L97.5217 104.365L97.4966 104.36L97.4716 104.355L97.4466 104.349L97.4217 104.344L97.3968 104.339L97.3721 104.334L97.3474 104.328L97.3227 104.323L97.2982 104.318L97.2737 104.313L97.2493 104.308L97.2249 104.303L97.2006 104.297L97.1764 104.292L97.1522 104.287L97.1282 104.282L97.1042 104.277L97.0802 104.272L97.0563 104.267L97.0325 104.262L97.0088 104.257L96.9851 104.252L96.9615 104.247L96.938 104.242L96.9146 104.237L96.8912 104.232L96.8678 104.227L96.8446 104.222L96.8214 104.218L96.7983 104.213L96.7753 104.208L96.7523 104.203L96.7294 104.198L96.7065 104.193L96.6838 104.189L96.6611 104.184L96.6385 104.179L96.6159 104.174L96.5934 104.17L96.571 104.165L96.5486 104.16L96.5263 104.155L96.5041 104.151L96.482 104.146L96.4599 104.141L96.4379 104.137L96.416 104.132L96.3941 104.128L96.3723 104.123L96.3506 104.118L96.3289 104.114L96.3073 104.109L96.2858 104.105L96.2643 104.1L96.243 104.096L96.2216 104.091L96.2004 104.087L96.1792 104.082L96.1581 104.078L96.1371 104.073L96.1161 104.069L96.0952 104.065L96.0744 104.06L96.0536 104.056L96.0329 104.052L96.0123 104.047L95.9917 104.043L95.9712 104.039L95.9508 104.034L95.9305 104.03L95.9102 104.026L95.89 104.021L95.8698 104.017L95.8498 104.013L95.8298 104.009L95.8098 104.005L95.79 104L95.7702 103.996L95.7504 103.992L95.7308 103.988L95.7112 103.984L95.6917 103.98L95.6722 103.976L95.6528 103.972L95.6335 103.967L95.6143 103.963L95.5951 103.959L95.576 103.955L95.557 103.951L95.538 103.947L95.5191 103.943L95.5003 103.939L95.4815 103.935L95.4628 103.931L95.4442 103.928L95.4256 103.924L95.4072 103.92L95.3887 103.916L95.3704 103.912L95.3521 103.908L95.3339 103.904L95.3158 103.901L95.2977 103.897L95.2797 103.893L95.2618 103.889L95.2439 103.885L95.2261 103.882L95.2084 103.878L95.1907 103.874L95.1732 103.87L95.1556 103.867L95.1382 103.863L95.1208 103.859L95.1035 103.856L95.0863 103.852L95.0691 103.849L95.052 103.845L95.035 103.841L95.018 103.838L95.0011 103.834L94.9843 103.831L94.9675 103.827L94.9508 103.824L94.9342 103.82L94.9177 103.817L94.9012 103.813L94.8848 103.81L94.8684 103.806L94.8522 103.803L94.836 103.799L94.8198 103.796L94.8038 103.793L94.7878 103.789L94.7718 103.786L94.756 103.783L94.7402 103.779L94.7245 103.776L94.7088 103.773L94.6932 103.769L94.6777 103.766L94.6623 103.763L94.6469 103.76L94.6316 103.756L94.6164 103.753L94.6012 103.75L94.5861 103.747L94.5711 103.744L94.5561 103.741L94.5412 103.737L94.5264 103.734L94.5116 103.731L94.497 103.728L94.4823 103.725L94.4678 103.722L94.4533 103.719L94.4389 103.716L94.4246 103.713L94.4103 103.71L94.3961 103.707L94.382 103.704L94.3679 103.701L94.3539 103.698L94.34 103.695L94.3261 103.692L94.3124 103.689L94.2986 103.686L94.285 103.683L94.2714 103.681L94.2579 103.678L94.2445 103.675L94.2311 103.672L94.2178 103.669L94.2046 103.667L94.1914 103.664L94.1783 103.661L94.1653 103.658L94.1523 103.656L94.1394 103.653L94.1266 103.65L94.1139 103.647L94.1012 103.645L94.0886 103.642L94.076 103.639L94.0635 103.637L94.0511 103.634L94.0388 103.632L94.0265 103.629L94.0143 103.626L94.0022 103.624L93.9902 103.621L93.9782 103.619L93.9662 103.616L93.9544 103.614L93.9426 103.611L93.9309 103.609L93.9193 103.606L93.9077 103.604L93.8962 103.602L93.8847 103.599L93.8734 103.597L93.8621 103.594L93.8508 103.592L93.8397 103.59L93.8286 103.587L93.8176 103.585L93.8066 103.583L93.7957 103.58L93.7849 103.578L93.7742 103.576L93.7635 103.574L93.7529 103.571L93.7423 103.569L93.7319 103.567L93.7215 103.565L93.7111 103.563L93.7009 103.56L93.6907 103.558L93.6806 103.556L93.6705 103.554L93.6605 103.552L93.6506 103.55L93.6408 103.548L93.631 103.546L93.6213 103.544L93.6116 103.542L93.6021 103.54L93.5926 103.538L93.5831 103.536L93.5738 103.534L93.5645 103.532L93.5552 103.53L93.5461 103.528L93.537 103.526L93.528 103.524L93.519 103.522L93.5101 103.52L93.5013 103.518L93.4926 103.517L93.4839 103.515L93.4753 103.513L93.4668 103.511L93.4583 103.509L93.4499 103.508L93.4416 103.506L93.4333 103.504L93.4251 103.502L93.417 103.501L93.409 103.499L93.401 103.497L93.3931 103.496L93.3852 103.494L93.3774 103.492L93.3697 103.491L93.3621 103.489L93.3545 103.487L93.347 103.486L93.3396 103.484L93.3322 103.483L93.3249 103.481L93.3177 103.48L93.3106 103.478L93.3035 103.477L93.2965 103.475L93.2895 103.474L93.2826 103.472L93.2758 103.471L93.2691 103.47L93.2624 103.468L93.2558 103.467L93.2493 103.465L93.2428 103.464L93.2364 103.463L93.2301 103.461L93.2239 103.46L93.2177 103.459L93.2116 103.457L93.2055 103.456L93.1995 103.455L93.1936 103.454L93.1878 103.452L93.182 103.451L93.1763 103.45L93.1707 103.449L93.1651 103.448L93.1596 103.446L93.1542 103.445L93.1488 103.444L93.1435 103.443L93.1383 103.442L93.1332 103.441L93.1281 103.44L93.1231 103.439L93.1181 103.438L93.1132 103.437L93.1084 103.436L93.1037 103.435L93.099 103.434L93.0944 103.433L93.0899 103.432L93.0855 103.431L93.0811 103.43L93.0767 103.429L93.0725 103.428L93.0683 103.427L93.0642 103.426L93.0601 103.426L93.0562 103.425L93.0523 103.424L93.0484 103.423L93.0447 103.422L93.041 103.421L93.0373 103.421L93.0338 103.42L93.0303 103.419L93.0269 103.418L93.0235 103.418L93.0203 103.417C93.043 102.806 93.0875 102.348 93.1533 102.041C93.2072 101.789 93.3882 101.423 93.7028 100.94C93.7069 100.934 93.7111 100.928 93.7156 100.922C93.8195 100.785 94.0189 100.756 94.1614 100.858Z" fill="#F2F2F2" stroke="black" stroke-width="0.1"/>
<path fill-rule="evenodd" clip-rule="evenodd" d="M89.4769 67.0057L96.1757 64.14C97.3491 63.0009 98.4823 62.1351 99.5751 61.5427C99.9019 61.4414 100.46 61.4107 99.8645 62.2582C99.2689 63.1057 98.6815 64.0232 98.9195 64.3203C99.1575 64.6173 99.8469 64.2894 100.119 64.7724C100.301 65.0944 99.1387 65.4796 96.6328 65.928L91.6159 69.675L89.4769 67.0057ZM62.3947 67.795L66.1831 68.5272C62.3733 75.4435 60.3301 79.1091 60.0537 79.5241C59.4316 80.4578 60.012 82.169 60.2264 83.0702C58.8815 83.3752 59.4119 81.4033 57.7099 81.815C56.1564 82.1908 54.8392 83.1552 53.3907 81.8545C53.2126 81.6946 53.0822 81.1948 53.6894 80.9384C55.2022 80.2997 57.4372 79.1038 57.7996 78.6395C58.2938 78.0063 59.8255 74.3915 62.3947 67.795Z" fill="#B28B67"/>
<path fill-rule="evenodd" clip-rule="evenodd" d="M76.4795 53.9881L78.0781 53.721C81.5601 57.0112 82.981 64.9158 85.3014 65.9622C87.4953 66.9514 90.6053 65.9941 94.3021 64.7015L95.4342 67.1655C92.0753 70.7053 84.9197 73.6959 82.0192 71.9886C77.382 69.2591 76.3114 59.5098 76.4795 53.9881Z" fill="#CC7272"/>
<path fill-rule="evenodd" clip-rule="evenodd" d="M69.5106 73.5578C75.9204 73.5578 80.6353 73.5578 83.6554 73.5578C84.3017 73.5578 84.1799 72.6486 84.0865 72.1899C83.0082 66.8952 78.7988 61.1879 78.7988 53.6511L74.7187 53.0278C71.344 58.3149 70.177 64.8244 69.5106 73.5578Z" fill="#F2F2F2"/>
<path fill-rule="evenodd" clip-rule="evenodd" d="M68.0997 68.1972C65.2162 73.2639 62.7925 76.9116 60.8285 79.1405L57.8636 78.5748C59.7735 67.037 65.3041 58.5213 74.4555 53.0278H75.1919L76.071 53.0278C79.7338 65.1904 80.7435 73.2943 79.1003 77.3396H66.3677C66.5692 74.3796 67.2151 71.2493 68.0997 68.1972H68.0997Z" fill="#EBA5A5"/>
</g>
<defs>
<clipPath id="clip0">
<rect width="120" height="189" fill="white"/>
</clipPath>
</defs>
</svg>
