<svg width="220" height="192" viewBox="0 0 220 192" fill="none" xmlns="http://www.w3.org/2000/svg">
<g clip-path="url(#clip0)">
<path fill-rule="evenodd" clip-rule="evenodd" d="M177.561 65.9455C179.368 63.5905 180.59 60.7044 180.386 57.4705C179.797 48.1526 168.119 50.2024 165.848 54.9053C163.576 59.6082 163.846 71.5374 166.782 72.3779C167.953 72.7131 170.447 71.892 172.985 70.1926L171.392 82.713H180.8L177.561 65.9455Z" fill="#B28B67"/>
<path fill-rule="evenodd" clip-rule="evenodd" d="M169.564 49.7832C170.849 49.3478 172.715 49.2001 173.5 49.3C173.054 48.1116 172.877 46.7876 173.021 45.4984C173.162 44.2457 173.666 43.1791 174.132 42.0614C174.346 41.5462 174.59 41.0339 174.953 40.6398C175.323 40.2384 175.791 39.9734 176.282 39.8469C176.784 39.7175 177.309 39.7283 177.812 39.8457C178.035 39.8977 178.235 40.0107 178.453 40.0735C178.676 40.1379 178.785 39.9825 178.947 39.8264C179.338 39.4501 179.911 39.2644 180.406 39.1979C180.961 39.1233 181.537 39.2163 182.066 39.4189C182.581 39.6162 183.076 39.9365 183.448 40.4031C183.614 40.6109 183.765 40.8473 183.862 41.1083C183.903 41.2154 183.909 41.2789 184.005 41.3181C184.094 41.3545 184.199 41.3555 184.29 41.3901C185.179 41.7242 185.938 42.4865 186.352 43.4652C186.593 44.0362 186.707 45.0415 186.676 46.1683C186.645 47.2951 185.729 50.2352 184.872 51.3076C184.107 52.2648 182.983 52.8965 181.898 53.173C182.618 54.0871 183.097 55.2294 183.452 56.3912C183.837 57.6532 184.075 58.9644 184.163 60.3005C184.247 61.5699 184.255 62.9122 183.987 64.1545C183.736 65.3163 183.2 66.2693 182.305 66.8739C181.895 67.1509 181.454 67.3589 181.011 67.5491C180.574 67.7365 180.135 67.9187 179.677 68.0238C178.811 68.2228 177.812 68.1886 177.145 67.4225C176.904 67.1463 176.639 66.7993 176.464 66.4618C176.401 66.3405 176.363 66.2612 176.439 66.1426C176.531 66.0005 176.68 65.8917 176.798 65.7805C177.471 65.147 177.887 64.3012 177.992 63.296C178.099 62.2761 177.852 60.9598 176.959 60.5147C175.857 59.9652 174.644 60.5959 173.664 61.1838C173.248 59.552 172.393 58.0827 171.053 57.3342C169.571 56.5061 167.87 56.4092 166.346 55.6987C165.949 55.5135 165.545 55.3034 165.252 54.9261C165.13 54.7685 164.987 54.5639 164.938 54.3554C164.874 54.0815 165.033 53.8519 165.156 53.6383C165.807 52.5061 168.278 50.2186 169.564 49.7832Z" fill="#87817B"/>
<path fill-rule="evenodd" clip-rule="evenodd" d="M134.196 126.731C131.381 122.491 124.345 125.298 124.35 128.808C124.361 138.023 131.932 181.773 132.328 184.535C132.723 187.298 136.958 188.201 137.205 184.75C137.597 179.258 138.326 160.221 137.597 151.364C137.384 148.777 137.159 146.277 136.933 143.934C140.912 151.874 146.963 163.097 155.086 177.603L159.601 175.312C156.056 162.338 153.149 153.18 150.88 147.835C146.995 138.684 143.352 130.848 141.819 128.088C139.794 124.441 136.51 124.925 134.196 126.731Z" fill="#B28B67"/>
<path fill-rule="evenodd" clip-rule="evenodd" d="M159.278 168.107L143.782 127.337C140.07 120.704 129.663 128.686 130.928 132.533C133.802 141.266 148.419 169.539 149.275 172.141L159.278 168.107Z" fill="#E87E27"/>
<path fill-rule="evenodd" clip-rule="evenodd" d="M123.958 131.991C123.958 143.547 128.518 170.711 128.521 173.256L139.569 172.842C137.638 149.224 136.824 137.336 137.126 137.176C137.806 136.816 165.016 141.358 173.177 141.701C184.945 142.196 189.813 134.178 190.208 118.961H167.413C147.922 121.545 135.111 123.342 128.981 124.353C125.045 125.002 123.958 128.807 123.958 131.991Z" fill="#FFA55C"/>
<path fill-rule="evenodd" clip-rule="evenodd" d="M160.212 174.034C160.921 175.177 161.345 176.063 161.486 176.689C161.657 177.451 161.792 178.594 161.892 180.119C161.096 180.339 153.945 182.32 140.438 186.06C139.421 184.167 139.495 182.973 140.66 182.477C141.824 181.981 142.789 181.558 143.554 181.206L152.417 173.507C152.587 173.359 152.834 173.393 152.967 173.582C152.969 173.585 152.972 173.589 152.974 173.592L154.002 175.141C155.244 175.41 156.212 175.448 156.907 175.255C157.472 175.099 158.195 174.629 159.077 173.847L159.077 173.847C159.415 173.547 159.908 173.608 160.179 173.984C160.19 174 160.201 174.016 160.212 174.034Z" fill="#C9C9C9"/>
<path fill-rule="evenodd" clip-rule="evenodd" d="M137.804 178.242C138.243 179.542 138.462 180.515 138.462 181.161C138.462 181.946 138.344 183.092 138.109 184.598C137.289 184.598 129.918 184.598 115.998 184.598C115.424 182.488 115.755 181.349 116.993 181.181C118.231 181.013 119.26 180.861 120.078 180.726L130.355 175.637C130.553 175.539 130.785 175.638 130.873 175.857C130.874 175.861 130.876 175.865 130.877 175.869L131.538 177.648C132.684 178.242 133.615 178.539 134.331 178.539C134.914 178.539 135.717 178.278 136.743 177.756L136.743 177.756C137.137 177.556 137.602 177.747 137.783 178.185C137.79 178.204 137.798 178.223 137.804 178.242Z" fill="#C9C9C9"/>
<path d="M118.665 184.598H136.698C137.456 184.598 138.07 185.28 138.07 186.122C138.07 186.964 137.456 187.646 136.698 187.646H118.665C117.908 187.646 117.293 186.964 117.293 186.122C117.293 185.28 117.908 184.598 118.665 184.598Z" fill="#2F3676"/>
<path fill-rule="evenodd" clip-rule="evenodd" d="M191.384 121.464H149.438C147.273 121.464 145.518 123.414 145.518 125.818V147.153H193.736C194.602 147.153 195.304 146.373 195.304 145.412V125.818C195.304 123.414 193.549 121.464 191.384 121.464Z" fill="#2F3676"/>
<path fill-rule="evenodd" clip-rule="evenodd" d="M149.439 121.464H148.579C146.659 121.464 145.021 123.009 144.71 125.113L136.11 183.292H140.299" fill="#2F3676"/>
<path d="M138.07 192C134.173 192 131.014 188.491 131.014 184.163C131.014 179.834 134.173 176.325 138.07 176.325C141.967 176.325 145.126 179.834 145.126 184.163C145.126 188.491 141.967 192 138.07 192Z" fill="#191847"/>
<path fill-rule="evenodd" clip-rule="evenodd" d="M190.208 191.129C206.662 191.129 220.001 176.314 220.001 158.038C220.001 139.763 206.662 124.947 190.208 124.947C173.754 124.947 160.415 139.763 160.415 158.038C160.415 176.314 173.754 191.129 190.208 191.129ZM190.208 185.034C176.785 185.034 165.903 172.947 165.903 158.038C165.903 143.129 176.785 131.043 190.208 131.043C203.631 131.043 214.513 143.129 214.513 158.038C214.513 172.947 203.631 185.034 190.208 185.034Z" fill="#191847"/>
<path d="M188.64 129.302H191.776V186.775H188.64V129.302Z" fill="#191847"/>
<path d="M171.359 138.334L172.467 137.103C172.774 136.763 173.27 136.763 173.576 137.103L209.057 176.511C209.363 176.851 209.363 177.403 209.057 177.743L207.949 178.974C207.642 179.314 207.146 179.314 206.84 178.974L171.359 139.566C171.052 139.226 171.052 138.674 171.359 138.334Z" fill="#191847"/>
<path d="M164.335 158.909V157.168C164.335 156.687 164.686 156.297 165.119 156.297H215.297C215.73 156.297 216.081 156.687 216.081 157.168V158.909C216.081 159.39 215.73 159.78 215.297 159.78H165.119C164.686 159.78 164.335 159.39 164.335 158.909Z" fill="#191847"/>
<path d="M172.467 178.974L171.359 177.743C171.052 177.403 171.052 176.851 171.359 176.511L206.84 137.103C207.146 136.763 207.642 136.763 207.948 137.103L209.057 138.334C209.363 138.674 209.363 139.226 209.057 139.566L173.576 178.974C173.27 179.314 172.773 179.314 172.467 178.974Z" fill="#191847"/>
<path fill-rule="evenodd" clip-rule="evenodd" d="M150.436 74.1533L135.577 69.199C132.805 66.8023 130.191 65.05 127.733 63.942C127.019 63.7926 125.836 63.8794 127.314 65.7422C128.793 67.6049 130.272 69.6381 129.85 70.4192C129.428 71.2003 127.89 70.6115 127.445 71.8487C127.148 72.6736 129.696 73.2643 135.089 73.621L146.642 81.1728L150.436 74.1533ZM151.749 103.25L139.244 113.449C135.853 114.466 133.019 115.73 130.744 117.243C130.206 117.787 129.557 118.889 131.786 118.698C134.015 118.508 136.368 118.419 136.675 119.263C136.983 120.108 135.634 121.118 136.255 122.257C136.67 123.017 138.628 121.112 142.13 116.543L154.513 110.84L151.749 103.25Z" fill="#B28B67"/>
<path fill-rule="evenodd" clip-rule="evenodd" d="M171.172 75.7843C164.362 89.8869 154.515 100.698 140.24 111.936L145.645 118.705C161.584 112.126 169.997 108.157 174.128 94.8324C175.164 91.4884 175.889 80.8281 176.511 75.2191L171.172 75.7843Z" fill="#E87E27"/>
<path fill-rule="evenodd" clip-rule="evenodd" d="M190.866 121.976L160.684 121.561C167.839 98.4955 171.55 82.6485 171.817 74.0197C171.83 73.5798 172.573 72.8145 172.895 72.9205C175.252 73.6956 177.789 73.4528 180.506 72.1921C187.485 85.0721 189.743 100.843 190.866 121.976Z" fill="#F2F2F2"/>
<path fill-rule="evenodd" clip-rule="evenodd" d="M176.588 73.1547C167.936 73.2334 153.898 74.9883 137.708 69.2154L136.11 78.0861C148.346 86.8268 160.736 93.5978 171.593 92.6362C166.878 115.097 167.095 133.484 177.504 133.484C182.474 133.484 187.839 133.484 193.598 133.484C196.155 114.404 189.436 87.9482 183.208 74.6042C182.97 74.0947 182.464 73.1341 181.271 73.1341C180.232 73.1341 178.673 73.1341 176.594 73.1341C176.592 73.1409 176.59 73.1478 176.588 73.1547Z" fill="#E87E27"/>
<path fill-rule="evenodd" clip-rule="evenodd" d="M73.8122 17.9637C75.1635 23.4943 76.9244 35.9258 75.1275 37.8759H63.7591C63.7579 37.8535 63.7568 37.8311 63.7557 37.8088C59.542 37.2909 56.2648 33.323 56.2648 28.5049V19.3613C56.2648 14.1912 60.0383 10.0001 64.6931 10.0001H65.4772C69.7044 10.0001 73.2048 13.4566 73.8122 17.9637Z" fill="#191847"/>
<path fill-rule="evenodd" clip-rule="evenodd" d="M60.679 26.7589C58.8726 24.4039 57.65 21.5178 57.8543 18.2839C58.443 8.96599 70.1212 11.0158 72.3928 15.7187C74.6645 20.4216 74.3945 32.3508 71.4586 33.1914C70.2878 33.5266 67.7936 32.7054 65.255 31.006L66.8484 43.5264H57.4401L60.679 26.7589Z" fill="#D4A181"/>
<path fill-rule="evenodd" clip-rule="evenodd" d="M63.2222 25.1848C63.6557 30.3566 63.482 36.2626 62.1901 37.6646H50.8217C50.1883 25.4411 56.3099 30.1746 56.3099 18.6659C56.6916 18.2517 57.0522 17.8418 57.4091 17.4882L57.3964 17.1498C59.365 12.6736 61.8625 10.4355 64.8888 10.4355C69.4284 10.4355 70.8612 12.7816 72.0812 14.7735C71.1689 18.2503 67.6286 18.7658 64.4828 20.9329C64.112 20.5983 63.6392 20.3978 63.1242 20.3978C61.9334 20.3978 60.9681 21.4699 60.9681 22.7925C60.9681 24.1151 61.9334 25.1873 63.1242 25.1873C63.157 25.1873 63.1897 25.1864 63.2222 25.1848Z" fill="#191847"/>
<path fill-rule="evenodd" clip-rule="evenodd" d="M42.3114 122.373C51.7156 125.295 59.8292 126.756 66.6523 126.756C73.4754 126.756 79.813 124.506 85.6652 120.007C76.4623 117.008 68.8834 115.509 62.9283 115.509C56.9732 115.509 50.1009 117.797 42.3114 122.373Z" fill="#CC7272"/>
<path fill-rule="evenodd" clip-rule="evenodd" d="M73.7941 130.967C73.7034 130.815 73.6268 130.651 73.5661 130.472C72.309 126.78 52.1745 86.9475 50.1686 79.6651H72.8373C74.3624 85.202 81.2267 119.949 82.1928 126.881C85.2408 137.817 91.5164 173.232 92.3176 175.685C93.1603 178.266 88.4183 180.955 87.1547 177.782C85.144 172.733 80.3532 158.763 78.22 150.233C76.2202 142.237 74.5918 135.042 73.7941 130.967Z" fill="#BA8B72"/>
<path fill-rule="evenodd" clip-rule="evenodd" d="M56.2473 135.83C47.0421 138.414 13.3714 143.085 11.0608 143.818C8.68388 144.572 6.59978 139.13 9.53778 137.952C14.2126 136.076 27.0939 131.742 34.9039 129.974C41.1858 128.551 46.9181 127.391 50.7666 126.711C50.4406 114.704 48.9502 85.8886 49.927 79.6651H69.9846C69.0478 85.6331 61.129 129.179 59.6572 133.537C59.1901 135.093 57.7964 135.781 56.2473 135.83Z" fill="#D4A181"/>
<path fill-rule="evenodd" clip-rule="evenodd" d="M85.7152 177.371C85.2767 178.672 85.0574 179.645 85.0574 180.29C85.0574 181.075 85.1751 182.221 85.4107 183.727C86.2307 183.727 93.6009 183.727 107.521 183.727C108.096 181.618 107.764 180.479 106.526 180.31C105.288 180.142 104.26 179.99 103.441 179.855L93.1642 174.766C92.9665 174.668 92.7347 174.767 92.6466 174.987C92.6451 174.99 92.6436 174.994 92.6422 174.998L91.9816 176.778C90.8356 177.372 89.9044 177.668 89.1879 177.668C88.6058 177.668 87.8019 177.407 86.7762 176.885L86.7762 176.885C86.3825 176.685 85.9172 176.877 85.7367 177.314C85.7289 177.333 85.7218 177.352 85.7152 177.371Z" fill="#666666"/>
<path fill-rule="evenodd" clip-rule="evenodd" d="M9.75104 136.503C8.52193 136.249 7.62117 136.178 7.04877 136.29C6.35259 136.426 5.35715 136.754 4.06244 137.273C4.20484 138.17 5.48465 146.232 7.90186 161.458C9.87228 161.72 10.8246 161.159 10.7588 159.776C10.693 158.393 10.6491 157.242 10.6271 156.323L13.3544 144.198C13.4068 143.965 13.2791 143.728 13.0691 143.67C13.0655 143.669 13.0619 143.668 13.0582 143.667L11.3655 143.254C10.6399 142.103 10.2149 141.136 10.0905 140.353C9.98942 139.716 10.0813 138.791 10.3663 137.579L10.3663 137.579C10.4756 137.113 10.2246 136.638 9.80567 136.516C9.78761 136.511 9.76939 136.506 9.75104 136.503Z" fill="#666666"/>
<path fill-rule="evenodd" clip-rule="evenodd" d="M49.9935 79.6651C58.8322 76.8564 67.1952 76.8564 75.0824 79.6651C77.8265 93.5709 84.4943 99.0901 85.6668 120.41C72.3383 127.766 55.8737 115.164 42.1532 122.337C38.2331 112.304 43.7213 88.1401 49.9935 79.6651Z" fill="#EBA5A5"/>
<path fill-rule="evenodd" clip-rule="evenodd" d="M88.0173 62.3842L103.495 60.0393C106.591 58.1265 109.44 56.8316 112.04 56.1545C112.772 56.1308 113.936 56.4262 112.202 58.0321C110.468 59.6379 108.708 61.4143 109.017 62.2713C109.326 63.1283 110.939 62.8095 111.206 64.1276C111.384 65.0064 108.767 65.1492 103.353 64.556L90.7943 70.0862L88.0173 62.3842ZM39.3957 66.3634L47.9798 66.3991C38.5671 89.9258 33.6591 102.244 33.256 103.354C32.3489 105.851 34.2684 109.653 35.0893 111.697C32.4157 113.026 32.7006 108.105 29.328 109.847C26.2496 111.438 23.9079 114.32 20.3513 111.883C19.914 111.583 19.4349 110.455 20.5926 109.573C23.4769 107.376 27.6335 103.532 28.1951 102.266C28.9609 100.541 32.6945 88.573 39.3957 66.3634Z" fill="#D4A181"/>
<path fill-rule="evenodd" clip-rule="evenodd" d="M62.9086 36.1245L69.6297 36.6218C71.285 53.2549 80.3011 63.761 100.488 60.2042L103.17 81.6239C84.3022 84.3322 67.7553 75.9424 64.3642 53.2266C63.4863 47.3462 62.7931 41.2265 62.9086 36.1245Z" fill="#D8D7D7"/>
<path fill-rule="evenodd" clip-rule="evenodd" d="M59.5924 33.9544L69.7757 36.5448C69.7757 55.9984 75.355 68.4101 78.2167 82.713H50.7144C50.327 87.6553 50.0891 92.735 49.9651 97.9522H29.3723C34.0388 70.3753 43.888 49.0404 58.9201 33.9475H59.5871L59.5924 33.9544Z" fill="#E5E5E5"/>
<path fill-rule="evenodd" clip-rule="evenodd" d="M55.0533 54.9599C54.3446 67.0821 54.7614 76.3332 56.3039 82.713H50.7142C51.4817 72.9224 52.8359 63.6714 55.0533 54.9599V54.9599Z" fill="black" fill-opacity="0.1"/>
</g>
<defs>
<clipPath id="clip0">
<rect width="220" height="192" fill="white"/>
</clipPath>
</defs>
</svg>
